Programming and statistical modelling in R - Tidying and reshaping – exercise solutions
…
lprdt[pid == "A048"]

    pid age sex      indat visit hdia diag1 diag2 diag3 diag4 diag5 diag6
1: A048  86   f 2006-08-20     1 I162  E439  D152  F851  C230  E249  I801
2: A048  86   f 2008-03-30     2 A981  D069  C472  E720  G119  B912  K901

lprtbl <- as_tibble(lpr)

## 1. 
lprtbl |> select(pid, age, sex, visit, hdia) |> 
  pivot_wider(names_from = visit, values_from = hdia, names_prefix = "visit")

# A tibble: 400 × 16
   pid     age sex   visit1 visit2 visit3 visit4 visit5 visit6 visit7 visit8
   <chr> <dbl> <chr> <chr>  <chr>  <chr>  <chr>  <chr>  <chr>  <chr>  <chr> 
 1 A001   72.5 f     H560   C871   C040   F412   F622   <NA>   <NA>   <NA>  
 2 A002   81.5 f     B481   K959   G902   <NA>   <NA>   <NA>   <NA>   <NA>  
 3 A003   54.5 m     E841   E071   H189   B090   C031   E179   E950   A100  
 4 A004   72.5 f     D921   B401   B491   G172   E161   <NA>   <NA>   <NA>  
 5 A005   86   f     J751   B101   <NA>   <NA>   <NA>   <NA>   <NA>   <NA>  
 6 A006   77   f     E310   C231   C212   B251   <NA>   <NA>   <NA>   <NA>  
 7 A007   86   f     I462   F190   <NA>   <NA>   <NA>   <NA>   <NA>   <NA>  
 8 A008   90.5 f     C451   <NA>   <NA>   <NA>   <NA>   <NA>   <NA>   <NA>  
 9 A009   72.5 f     D162   H580   C729   B992   B500   <NA>   <NA>   <NA>  
10 A010   63.5 m     A709   A772   B800   F212   K402   F712   K180   <NA>  
# ℹ 390 more rows
# ℹ 5 more variables: visit9 <chr>, visit10 <chr>, visit11 <chr>,
#   visit12 <chr>, visit13 <chr>

## 2. 

lprlong <- lprtbl |> pivot_longer(cols = hdia:diag6, values_to = "diag") |> 
  mutate(maindiag = name == "hdia") |> 
  filter(!is.na(diag))
lprlong

# A tibble: 8,046 × 8
   pid     age sex   indat      visit name  diag  maindiag
   <chr> <dbl> <chr> <date>     <int> <chr> <chr> <lgl>   
 1 A001   72.5 f     2010-01-27     1 hdia  H560  TRUE    
 2 A001   72.5 f     2010-01-27     1 diag1 B632  FALSE   
 3 A001   72.5 f     2010-01-27     1 diag2 H180  FALSE   
 4 A001   72.5 f     2010-01-27     1 diag3 J050  FALSE   
 5 A001   72.5 f     2010-06-26     2 hdia  C871  TRUE    
 6 A001   72.5 f     2010-06-26     2 diag1 D422  FALSE   
 7 A001   72.5 f     2010-06-26     2 diag2 K820  FALSE   
 8 A001   72.5 f     2010-06-26     2 diag3 A602  FALSE   
 9 A001   72.5 f     2010-07-20     3 hdia  C040  TRUE    
10 A001   72.5 f     2010-07-20     3 diag1 B710  FALSE   
# ℹ 8,036 more rows
…
