Programming and statistical modelling in R - Data structures – exercises
…
Attaching package: 'dplyr'

The following objects are masked from 'package:stats':

    filter, lag

The following objects are masked from 'package:base':

    intersect, setdiff, setequal, union

## subset
filter(penguins, !is.na(body_mass_g))

# A tibble: 342 × 8
   species island    bill_length_mm bill_depth_mm flipper_length_mm body_mass_g
   <fct>   <fct>              <dbl>         <dbl>             <int>       <int>
 1 Adelie  Torgersen           39.1          18.7               181        3750
 2 Adelie  Torgersen           39.5          17.4               186        3800
 3 Adelie  Torgersen           40.3          18                 195        3250
 4 Adelie  Torgersen           36.7          19.3               193        3450
 5 Adelie  Torgersen           39.3          20.6               190        3650
 6 Adelie  Torgersen           38.9          17.8               181        3625
 7 Adelie  Torgersen           39.2          19.6               195        4675
 8 Adelie  Torgersen           34.1          18.1               193        3475
 9 Adelie  Torgersen           42            20.2               190        4250
10 Adelie  Torgersen           37.8          17.1               186        3300
# ℹ 332 more rows
# ℹ 2 more variables: sex <fct>, year <int>

filter(penguins, sex == "male")

# A tibble: 168 × 8
   species island    bill_length_mm bill_depth_mm flipper_length_mm body_mass_g
   <fct>   <fct>              <dbl>         <dbl>             <int>       <int>
 1 Adelie  Torgersen           39.1          18.7               181        3750
 2 Adelie  Torgersen           39.3          20.6               190        3650
 3 Adelie  Torgersen           39.2          19.6               195        4675
 4 Adelie  Torgersen           38.6          21.2               191        3800
 5 Adelie  Torgersen           34.6          21.1               198        4400
 6 Adelie  Torgersen           42.5          20.7               197        4500
 7 Adelie  Torgersen           46            21.5               194        4200
 8 Adelie  Biscoe              37.7          18.7               180        3600
 9 Adelie  Biscoe              38.2          18.1               185        3950
10 Adelie  Biscoe              38.8          17.2               180        3800
# ℹ 158 more rows
# ℹ 2 more variables: sex <fct>, year <int>
…
# A tibble: 6 × 8
  species island    bill_length_mm bill_depth_mm flipper_length_mm body_mass_g
  <fct>   <fct>              <dbl>         <dbl>             <int>       <int>
1 Adelie  Torgersen           39.1          18.7               181        3750
2 Adelie  Torgersen           39.5          17.4               186        3800
3 Adelie  Torgersen           40.3          18                 195        3250
4 Adelie  Torgersen           NA            NA                  NA          NA
5 Adelie  Torgersen           36.7          19.3               193        3450
6 Adelie  Torgersen           39.3          20.6               190        3650
# ℹ 2 more variables: sex <fct>, year <int>

## sort
arrange(penguins, year)

# A tibble: 344 × 8
   species island    bill_length_mm bill_depth_mm flipper_length_mm body_mass_g
   <fct>   <fct>              <dbl>         <dbl>             <int>       <int>
 1 Adelie  Torgersen           39.1          18.7               181        3750
 2 Adelie  Torgersen           39.5          17.4               186        3800
 3 Adelie  Torgersen           40.3          18                 195        3250
 4 Adelie  Torgersen           NA            NA                  NA          NA
 5 Adelie  Torgersen           36.7          19.3               193        3450
 6 Adelie  Torgersen           39.3          20.6               190        3650
 7 Adelie  Torgersen           38.9          17.8               181        3625
 8 Adelie  Torgersen           39.2          19.6               195        4675
 9 Adelie  Torgersen           34.1          18.1               193        3475
10 Adelie  Torgersen           42            20.2               190        4250
# ℹ 334 more rows
# ℹ 2 more variables: sex <fct>, year <int>

arrange(penguins, desc(year))

# A tibble: 344 × 8
   species island bill_length_mm bill_depth_mm flipper_length_mm body_mass_g
   <fct>   <fct>           <dbl>         <dbl>             <int>       <int>
 1 Adelie  Biscoe           35            17.9               192        3725
 2 Adelie  Biscoe           41            20                 203        4725
 3 Adelie  Biscoe           37.7          16                 183        3075
 4 Adelie  Biscoe           37.8          20                 190        4250
 5 Adelie  Biscoe           37.9          18.6               193        2925
 6 Adelie  Biscoe           39.7          18.9               184        3550
 7 Adelie  Biscoe           38.6          17.2               199        3750
 8 Adelie  Biscoe           38.2          20                 190        3900
 9 Adelie  Biscoe           38.1          17                 181        3175
10 Adelie  Biscoe           43.2          19                 197        4775
# ℹ 334 more rows
# ℹ 2 more variables: sex <fct>, year <int>

## select columns
select(penguins, species, sex, year)

# A tibble: 344 × 3
   species sex     year
   <fct>   <fct>  <int>
 1 Adelie  male    2007
 2 Adelie  female  2007
 3 Adelie  female  2007
 4 Adelie  <NA>    2007
 5 Adelie  female  2007
 6 Adelie  male    2007
 7 Adelie  female  2007
 8 Adelie  male    2007
 9 Adelie  <NA>    2007
10 Adelie  <NA>    2007
# ℹ 334 more rows

select(penguins, starts_with("bill"))

# A tibble: 344 × 2
   bill_length_mm bill_depth_mm
            <dbl>         <dbl>
 1           39.1          18.7
 2           39.5          17.4
 3           40.3          18  
 4           NA            NA  
 5           36.7          19.3
 6           39.3          20.6
 7           38.9          17.8
 8           39.2          19.6
 9           34.1          18.1
10           42            20.2
# ℹ 334 more rows

select(penguins, bill_length_mm:body_mass_g)

# A tibble: 344 × 4
   bill_length_mm bill_depth_mm flipper_length_mm body_mass_g
            <dbl>         <dbl>             <int>       <int>
 1           39.1          18.7               181        3750
 2           39.5          17.4               186        3800
 3           40.3          18                 195        3250
 4           NA            NA                  NA          NA
 5           36.7          19.3               193        3450
 6           39.3          20.6               190        3650
 7           38.9          17.8               181        3625
 8           39.2          19.6               195        4675
 9           34.1          18.1               193        3475
10           42            20.2               190        4250
# ℹ 334 more rows

## create new columns
mutate(penguins, bill_ratio = bill_length_mm / bill_depth_mm) |>
  select(starts_with("bill"))

# A tibble: 344 × 3
   bill_length_mm bill_depth_mm bill_ratio
            <dbl>         <dbl>      <dbl>
 1           39.1          18.7       2.09
 2           39.5          17.4       2.27
 3           40.3          18         2.24
 4           NA            NA        NA   
 5           36.7          19.3       1.90
 6           39.3          20.6       1.91
 7           38.9          17.8       2.19
 8           39.2          19.6       2   
 9           34.1          18.1       1.88
10           42            20.2       2.08
# ℹ 334 more rows

mutate(penguins, bill_ratio = bill_length_mm / bill_depth_mm) |>
  relocate(bill_ratio, .after = bill_depth_mm)

# A tibble: 344 × 9
   species island    bill_length_mm bill_depth_mm bill_ratio flipper_length_mm
   <fct>   <fct>              <dbl>         <dbl>      <dbl>             <int>
 1 Adelie  Torgersen           39.1          18.7       2.09               181
 2 Adelie  Torgersen           39.5          17.4       2.27               186
 3 Adelie  Torgersen           40.3          18         2.24               195
 4 Adelie  Torgersen           NA            NA        NA                   NA
 5 Adelie  Torgersen           36.7          19.3       1.90               193
 6 Adelie  Torgersen           39.3          20.6       1.91               190
 7 Adelie  Torgersen           38.9          17.8       2.19               181
 8 Adelie  Torgersen           39.2          19.6       2                  195
 9 Adelie  Torgersen           34.1          18.1       1.88               193
10 Adelie  Torgersen           42            20.2       2.08               190
# ℹ 334 more rows
# ℹ 3 more variables: body_mass_g <int>, sex <fct>, year <int>
…
